12:50:08 pm: Executing task 'signingReport'...

Executing tasks: [signingReport] in project E:\QuickWorkz\Identy\Tigo


> Task :app:signingReport
Variant: debug
Config: debug
Store: C:\Users\Prasath\.android\debug.keystore
Alias: AndroidDebugKey
MD5: 37:DE:C1:E0:97:AA:7E:5A:07:2E:53:D2:B3:C3:5C:B7
SHA1: 4C:61:53:89:43:80:84:FB:A6:14:4B:B8:D7:3C:05:B6:63:B8:E6:98
SHA-256: 73:FF:BB:E9:51:2B:3A:1A:1E:E0:D3:57:C6:70:C0:32:7E:0C:1C:4D:59:2F:39:6E:79:2E:B6:52:B7:99:0F:E5
Valid until: Monday, 8 January 2052
----------
Variant: release
Config: none
----------
Variant: debugAndroidTest
Config: debug
Store: C:\Users\Prasath\.android\debug.keystore
Alias: AndroidDebugKey
MD5: 37:DE:C1:E0:97:AA:7E:5A:07:2E:53:D2:B3:C3:5C:B7
SHA1: 4C:61:53:89:43:80:84:FB:A6:14:4B:B8:D7:3C:05:B6:63:B8:E6:98
SHA-256: 73:FF:BB:E9:51:2B:3A:1A:1E:E0:D3:57:C6:70:C0:32:7E:0C:1C:4D:59:2F:39:6E:79:2E:B6:52:B7:99:0F:E5
Valid until: Monday, 8 January 2052
----------

Deprecated Gradle features were used in this build, making it incompatible with Gradle 8.0.
Use '--warning-mode all' to show the individual deprecation warnings.
See https://docs.gradle.org/7.0.2/userguide/command_line_interface.html#sec:command_line_warnings

BUILD SUCCESSFUL in 2s
1 actionable task: 1 executed
12:50:15 pm: Task execution finished 'signingReport'.
